# Created by Octave 4.2.2, Thu Aug 06 11:03:40 2020 CEST <antun@sabres>
# name: J
# type: class
# classname: sym
# length: 6
# name: ascii
# type: cell
# rows: 1
# columns: 1
# name: <cell-element>
# type: sq_string
# elements: 1
# length: 2540
[                                       1                                                                           1                                                           1                                      1             ]
[                                                                                                                                                                                                                                    ]
[                                       0                                                                           0                                                           0                                      0             ]
[                                                                                                                                                                                                                                    ]
[                                       0                                                                           0                                                           0                                      0             ]
[                                                                                                                                                                                                                                    ]
[                                       0                                                                           0                                                           0                                      0             ]
[                                                                                                                                                                                                                                    ]
[-l1*cos(q1) - l2*cos(q1 + q2) - l3*cos(q1 + q2 + q3) - l4*cos(q1 + q2 + q3 + q4)  -l2*cos(q1 + q2) - l3*cos(q1 + q2 + q3) - l4*cos(q1 + q2 + q3 + q4)  -l3*cos(q1 + q2 + q3) - l4*cos(q1 + q2 + q3 + q4)  -l4*cos(q1 + q2 + q3 + q4)]
[                                                                                                                                                                                                                                    ]
[-l1*sin(q1) - l2*sin(q1 + q2) - l3*sin(q1 + q2 + q3) - l4*sin(q1 + q2 + q3 + q4)  -l2*sin(q1 + q2) - l3*sin(q1 + q2 + q3) - l4*sin(q1 + q2 + q3 + q4)  -l3*sin(q1 + q2 + q3) - l4*sin(q1 + q2 + q3 + q4)  -l4*sin(q1 + q2 + q3 + q4)]





# name: extra
# type: cell
# rows: 1
# columns: 1
# name: <cell-element>
# type: matrix
# rows: 0
# columns: 0





# name: flat
# type: cell
# rows: 1
# columns: 1
# name: <cell-element>
# type: sq_string
# elements: 1
# length: 528
Matrix([[1, 1, 1, 1], [0, 0, 0, 0], [0, 0, 0, 0], [0, 0, 0, 0], [-l1*cos(q1) - l2*cos(q1 + q2) - l3*cos(q1 + q2 + q3) - l4*cos(q1 + q2 + q3 + q4), -l2*cos(q1 + q2) - l3*cos(q1 + q2 + q3) - l4*cos(q1 + q2 + q3 + q4), -l3*cos(q1 + q2 + q3) - l4*cos(q1 + q2 + q3 + q4), -l4*cos(q1 + q2 + q3 + q4)], [-l1*sin(q1) - l2*sin(q1 + q2) - l3*sin(q1 + q2 + q3) - l4*sin(q1 + q2 + q3 + q4), -l2*sin(q1 + q2) - l3*sin(q1 + q2 + q3) - l4*sin(q1 + q2 + q3 + q4), -l3*sin(q1 + q2 + q3) - l4*sin(q1 + q2 + q3 + q4), -l4*sin(q1 + q2 + q3 + q4)]])





# name: pickle
# type: cell
# rows: 1
# columns: 1
# name: <cell-element>
# type: sq_string
# elements: 1
# length: 2804
MutableDenseMatrix([[Integer(1), Integer(1), Integer(1), Integer(1)], [Integer(0), Integer(0), Integer(0), Integer(0)], [Integer(0), Integer(0), Integer(0), Integer(0)], [Integer(0), Integer(0), Integer(0), Integer(0)], [Add(Mul(Integer(-1), Symbol('l1', real=True), cos(Symbol('q1', real=True))), Mul(Integer(-1), Symbol('l2', real=True), cos(Add(Symbol('q1', real=True), Symbol('q2', real=True)))), Mul(Integer(-1), Symbol('l3', real=True), cos(Add(Symbol('q1', real=True), Symbol('q2', real=True), Symbol('q3', real=True)))), Mul(Integer(-1), Symbol('l4', real=True), cos(Add(Symbol('q1', real=True), Symbol('q2', real=True), Symbol('q3', real=True), Symbol('q4', real=True))))), Add(Mul(Integer(-1), Symbol('l2', real=True), cos(Add(Symbol('q1', real=True), Symbol('q2', real=True)))), Mul(Integer(-1), Symbol('l3', real=True), cos(Add(Symbol('q1', real=True), Symbol('q2', real=True), Symbol('q3', real=True)))), Mul(Integer(-1), Symbol('l4', real=True), cos(Add(Symbol('q1', real=True), Symbol('q2', real=True), Symbol('q3', real=True), Symbol('q4', real=True))))), Add(Mul(Integer(-1), Symbol('l3', real=True), cos(Add(Symbol('q1', real=True), Symbol('q2', real=True), Symbol('q3', real=True)))), Mul(Integer(-1), Symbol('l4', real=True), cos(Add(Symbol('q1', real=True), Symbol('q2', real=True), Symbol('q3', real=True), Symbol('q4', real=True))))), Mul(Integer(-1), Symbol('l4', real=True), cos(Add(Symbol('q1', real=True), Symbol('q2', real=True), Symbol('q3', real=True), Symbol('q4', real=True))))], [Add(Mul(Integer(-1), Symbol('l1', real=True), sin(Symbol('q1', real=True))), Mul(Integer(-1), Symbol('l2', real=True), sin(Add(Symbol('q1', real=True), Symbol('q2', real=True)))), Mul(Integer(-1), Symbol('l3', real=True), sin(Add(Symbol('q1', real=True), Symbol('q2', real=True), Symbol('q3', real=True)))), Mul(Integer(-1), Symbol('l4', real=True), sin(Add(Symbol('q1', real=True), Symbol('q2', real=True), Symbol('q3', real=True), Symbol('q4', real=True))))), Add(Mul(Integer(-1), Symbol('l2', real=True), sin(Add(Symbol('q1', real=True), Symbol('q2', real=True)))), Mul(Integer(-1), Symbol('l3', real=True), sin(Add(Symbol('q1', real=True), Symbol('q2', real=True), Symbol('q3', real=True)))), Mul(Integer(-1), Symbol('l4', real=True), sin(Add(Symbol('q1', real=True), Symbol('q2', real=True), Symbol('q3', real=True), Symbol('q4', real=True))))), Add(Mul(Integer(-1), Symbol('l3', real=True), sin(Add(Symbol('q1', real=True), Symbol('q2', real=True), Symbol('q3', real=True)))), Mul(Integer(-1), Symbol('l4', real=True), sin(Add(Symbol('q1', real=True), Symbol('q2', real=True), Symbol('q3', real=True), Symbol('q4', real=True))))), Mul(Integer(-1), Symbol('l4', real=True), sin(Add(Symbol('q1', real=True), Symbol('q2', real=True), Symbol('q3', real=True), Symbol('q4', real=True))))]])





# name: size
# type: cell
# rows: 1
# columns: 1
# name: <cell-element>
# type: matrix
# rows: 1
# columns: 2
 6 4





# name: unicode
# type: cell
# rows: 1
# columns: 1
# name: <cell-element>
# type: sq_string
# elements: 1
# length: 2784
⎡                                       1                                                                           1                                                           1                                      1             ⎤
⎢                                                                                                                                                                                                                                    ⎥
⎢                                       0                                                                           0                                                           0                                      0             ⎥
⎢                                                                                                                                                                                                                                    ⎥
⎢                                       0                                                                           0                                                           0                                      0             ⎥
⎢                                                                                                                                                                                                                                    ⎥
⎢                                       0                                                                           0                                                           0                                      0             ⎥
⎢                                                                                                                                                                                                                                    ⎥
⎢-l₁⋅cos(q₁) - l₂⋅cos(q₁ + q₂) - l₃⋅cos(q₁ + q₂ + q₃) - l₄⋅cos(q₁ + q₂ + q₃ + q₄)  -l₂⋅cos(q₁ + q₂) - l₃⋅cos(q₁ + q₂ + q₃) - l₄⋅cos(q₁ + q₂ + q₃ + q₄)  -l₃⋅cos(q₁ + q₂ + q₃) - l₄⋅cos(q₁ + q₂ + q₃ + q₄)  -l₄⋅cos(q₁ + q₂ + q₃ + q₄)⎥
⎢                                                                                                                                                                                                                                    ⎥
⎣-l₁⋅sin(q₁) - l₂⋅sin(q₁ + q₂) - l₃⋅sin(q₁ + q₂ + q₃) - l₄⋅sin(q₁ + q₂ + q₃ + q₄)  -l₂⋅sin(q₁ + q₂) - l₃⋅sin(q₁ + q₂ + q₃) - l₄⋅sin(q₁ + q₂ + q₃ + q₄)  -l₃⋅sin(q₁ + q₂ + q₃) - l₄⋅sin(q₁ + q₂ + q₃ + q₄)  -l₄⋅sin(q₁ + q₂ + q₃ + q₄)⎦







